6
Ethylene
C	0.0000000	0.0000000	0.6611570
C	0.0000000	0.0000000	-0.6611570
H	0.0000000	0.9113700	1.2292870
H	0.0000000	-0.9113700	1.2292870
H	0.0000000	-0.9113700	-1.2292870
H	0.0000000	0.9113700	-1.2292870
