8
Iodine heptafluoride
I      0.000000      0.000000      0.000000
F      1.860000      0.000000      0.000000
F      0.000000      0.000000      1.790000
F      0.000000      0.000000     -1.790000
F      0.574800      1.769000      0.000000
F     -1.504800      1.093300      0.000000
F     -1.504800     -1.093300      0.000000
F      0.574800     -1.769000      0.000000
